47c78742-4998-4878-aec4-37b11b1354ac 47c78742-4998-4878-aec4-37b11b1354ac.png normal
8989e25c-a698-48fc-b428-fff56931fc8f 8989e25c-a698-48fc-b428-fff56931fc8f.png normal
7fb3786c-5045-4a90-981d-c55b53d4d5d3 7fb3786c-5045-4a90-981d-c55b53d4d5d3.png normal
766b8aea-3b43-4a34-b675-09f373ca066b 766b8aea-3b43-4a34-b675-09f373ca066b.png normal
f6236cb5-cc36-4ec4-895c-d11ce043341d f6236cb5-cc36-4ec4-895c-d11ce043341d.png normal
153b7c2b-4909-4dca-8579-9523582bc4fe 153b7c2b-4909-4dca-8579-9523582bc4fe.png normal
1afd6582-da9d-4e5a-a81f-62a188fe9366 1afd6582-da9d-4e5a-a81f-62a188fe9366.png normal
85bb48fe-e6d6-47de-bb71-d1636aced7dc 85bb48fe-e6d6-47de-bb71-d1636aced7dc.png normal
eaeb935a-7294-4dd3-8bf5-73ba781d28af eaeb935a-7294-4dd3-8bf5-73ba781d28af.png normal
5f137fa7-6539-499e-b0d5-0e481221bf5a 5f137fa7-6539-499e-b0d5-0e481221bf5a.png normal
b5234584-1487-492c-8742-444b9ca41c3d b5234584-1487-492c-8742-444b9ca41c3d.png normal
71d8d6ec-253b-4272-a467-311828b2a35b 71d8d6ec-253b-4272-a467-311828b2a35b.png normal
0103fadb-1663-40a6-8a9e-09d626cd2091 0103fadb-1663-40a6-8a9e-09d626cd2091.png normal
e4cd65ae-65de-44fc-a6b2-ebbc46d2e8d8 e4cd65ae-65de-44fc-a6b2-ebbc46d2e8d8.png normal
2f8fbfdc-56db-4eca-bf64-3c9a0637e28c 2f8fbfdc-56db-4eca-bf64-3c9a0637e28c.png normal
bc46651a-1314-44af-a834-1eb8a36e589e bc46651a-1314-44af-a834-1eb8a36e589e.png normal
71d25920-4060-4a31-b7aa-cfbf4721a5c5 71d25920-4060-4a31-b7aa-cfbf4721a5c5.png normal
ca3c90e4-f7fe-4f6e-b20b-81473deab4f0 ca3c90e4-f7fe-4f6e-b20b-81473deab4f0.png normal
dab2f334-331c-42c7-af09-a997092464b0 dab2f334-331c-42c7-af09-a997092464b0.png normal
436dce2a-06c3-4281-bb8e-840497a49381 436dce2a-06c3-4281-bb8e-840497a49381.png normal
af6ef3d9-81c8-434e-bc5a-dbf89bc418aa af6ef3d9-81c8-434e-bc5a-dbf89bc418aa.png normal
a7aef71b-0fc8-4837-be79-4ced56e03439 a7aef71b-0fc8-4837-be79-4ced56e03439.png normal
dfa57c1f-01fb-4417-a1b5-0641a9b4bb84 dfa57c1f-01fb-4417-a1b5-0641a9b4bb84.png normal
5eb932e2-3455-40fe-93db-ae44f897d9e0 5eb932e2-3455-40fe-93db-ae44f897d9e0.png normal
e8485b0f-293d-4ca8-8b71-92db61c8ee3e e8485b0f-293d-4ca8-8b71-92db61c8ee3e.png normal
35cda03a-0898-4f8b-92d3-6f263aed23ff 35cda03a-0898-4f8b-92d3-6f263aed23ff.png normal
d82e5841-2f43-4eab-ac17-e98a2d90c51b d82e5841-2f43-4eab-ac17-e98a2d90c51b.png normal
af1d168c-4850-41e1-85b8-ff8fc645e671 af1d168c-4850-41e1-85b8-ff8fc645e671.png normal
585f5059-8938-4885-accb-d7d0b1097c60 585f5059-8938-4885-accb-d7d0b1097c60.png normal
5d4c7318-4739-4470-89f3-70bbbca95f10 5d4c7318-4739-4470-89f3-70bbbca95f10.png normal
d3ad2915-af30-426c-ad2d-1634df8c1b5f d3ad2915-af30-426c-ad2d-1634df8c1b5f.png normal
dee054ff-0e1a-4167-b814-cbf339cf689c dee054ff-0e1a-4167-b814-cbf339cf689c.png normal
bb068d57-86a8-4347-bee0-e29d59ddef6b bb068d57-86a8-4347-bee0-e29d59ddef6b.png normal
354c3756-43ed-4921-adf8-60be49a8b7e8 354c3756-43ed-4921-adf8-60be49a8b7e8.png normal
b8dd7d32-b177-4d1e-982f-6f0a743828fa b8dd7d32-b177-4d1e-982f-6f0a743828fa.png normal
a17f7e03-42a6-41d3-82ad-d8a656826936 a17f7e03-42a6-41d3-82ad-d8a656826936.png normal
c3c78e4e-1a31-4a92-be4b-0fc3c7f992a4 c3c78e4e-1a31-4a92-be4b-0fc3c7f992a4.png normal
f1c8caa2-a6dc-40c0-ab85-4769688f1eec f1c8caa2-a6dc-40c0-ab85-4769688f1eec.png normal
d535a3c8-c4a4-4856-b5cd-17f6332eac8b d535a3c8-c4a4-4856-b5cd-17f6332eac8b.png normal
2ed06be4-9f0e-4256-b8bf-a4b396cc6364 2ed06be4-9f0e-4256-b8bf-a4b396cc6364.png normal
168f4fcb-a87d-49fc-b167-4ed42fd1ec43 168f4fcb-a87d-49fc-b167-4ed42fd1ec43.png normal
a8e3ea7d-0b63-45cf-85d8-1078d3e2449d a8e3ea7d-0b63-45cf-85d8-1078d3e2449d.png normal
f31d1fb1-604b-4fec-b320-f07ce2694008 f31d1fb1-604b-4fec-b320-f07ce2694008.png normal
069cfd47-0169-43e7-89a1-0be0fa24105b 069cfd47-0169-43e7-89a1-0be0fa24105b.png normal
85d84453-ab2d-4666-98e6-5df3cbb81f5b 85d84453-ab2d-4666-98e6-5df3cbb81f5b.png normal
8db71746-e837-43c2-bdf1-c44d1ab207e3 8db71746-e837-43c2-bdf1-c44d1ab207e3.png normal
275f9fff-2439-4f3f-9c48-7c21f348701a 275f9fff-2439-4f3f-9c48-7c21f348701a.png normal
1d1968e2-88a5-4d72-9237-caf4cbad9423 1d1968e2-88a5-4d72-9237-caf4cbad9423.png normal
07aeb82e-773b-4498-95c0-fabdf4985bb2 07aeb82e-773b-4498-95c0-fabdf4985bb2.png normal
652d6bb3-56a0-4a89-9631-684ce27cfc4c 652d6bb3-56a0-4a89-9631-684ce27cfc4c.png normal
e155c13d-7ac7-4765-bb86-899349978413 e155c13d-7ac7-4765-bb86-899349978413.png normal
98bfaf7a-d80b-491e-a7e0-c5c7316bebe9 98bfaf7a-d80b-491e-a7e0-c5c7316bebe9.png normal
76b180ab-242f-45d3-bce1-68df00c5ef45 76b180ab-242f-45d3-bce1-68df00c5ef45.png normal
372b2fea-2013-4600-a06f-765c3f054a82 372b2fea-2013-4600-a06f-765c3f054a82.png normal
a52aa522-a1b3-4f15-8609-f44bf96da2e3 a52aa522-a1b3-4f15-8609-f44bf96da2e3.png normal
6556ce72-1a60-40aa-aaf7-b50dbf07fae7 6556ce72-1a60-40aa-aaf7-b50dbf07fae7.png normal
633d9182-1809-41b7-a59b-1e60ac91f0c9 633d9182-1809-41b7-a59b-1e60ac91f0c9.png normal
fd7bad9a-1bff-49ec-9c6c-c9aae9e65726 fd7bad9a-1bff-49ec-9c6c-c9aae9e65726.png normal
99432aa3-8d61-4ff2-a79a-f0a0218d6fa2 99432aa3-8d61-4ff2-a79a-f0a0218d6fa2.png normal
34bf2fcd-131a-428c-9a21-cd2fa9041f9b 34bf2fcd-131a-428c-9a21-cd2fa9041f9b.png normal
b5007662-ff9c-49ad-9093-85ed7dc44bf4 b5007662-ff9c-49ad-9093-85ed7dc44bf4.png normal
06b2f933-3ea2-4477-ac27-18f732d1f4e1 06b2f933-3ea2-4477-ac27-18f732d1f4e1.png normal
c2b24ebd-2c40-48c3-ba39-177224dd7db0 c2b24ebd-2c40-48c3-ba39-177224dd7db0.png normal
63192a6c-02ba-48a5-932a-bb82aeacb1bc 63192a6c-02ba-48a5-932a-bb82aeacb1bc.png normal
73dca3d1-5c58-4c72-80a9-201deca7ffec 73dca3d1-5c58-4c72-80a9-201deca7ffec.png normal
c485a9bd-6e18-4328-8c5c-cf80f71aa35d c485a9bd-6e18-4328-8c5c-cf80f71aa35d.png normal
b540ba89-72f7-40f5-a916-376546c20014 b540ba89-72f7-40f5-a916-376546c20014.png normal
33e4e43b-054b-4537-9cd6-0fe574f7d337 33e4e43b-054b-4537-9cd6-0fe574f7d337.png normal
45dd0d26-0740-4c32-bd01-34246a41f3e3 45dd0d26-0740-4c32-bd01-34246a41f3e3.png normal
ad446933-fb8e-4739-bb40-2063e796ffd8 ad446933-fb8e-4739-bb40-2063e796ffd8.png normal
5b12801f-aaf7-442e-b994-ec8f15ce78e5 5b12801f-aaf7-442e-b994-ec8f15ce78e5.png normal
3fe1550e-8bcb-4732-a343-725acce70531 3fe1550e-8bcb-4732-a343-725acce70531.png normal
0bb24183-8b59-48f1-8bbf-4d889976fc82 0bb24183-8b59-48f1-8bbf-4d889976fc82.png normal
02e4191e-fb03-4581-914c-f0438a17e53e 02e4191e-fb03-4581-914c-f0438a17e53e.png normal
a8dfd068-69e9-4486-bb22-2a04f2f2e1a5 a8dfd068-69e9-4486-bb22-2a04f2f2e1a5.png normal
63f71157-7db6-476f-b320-ba2fcbe2543f 63f71157-7db6-476f-b320-ba2fcbe2543f.png normal
1cdba4ee-0bb8-421d-9a24-7febeb399729 1cdba4ee-0bb8-421d-9a24-7febeb399729.png normal
e1d23cbe-213d-48d6-a8c2-672c4e68285d e1d23cbe-213d-48d6-a8c2-672c4e68285d.png normal
4b1cab8a-c9bd-40e6-bc86-23c6be98a099 4b1cab8a-c9bd-40e6-bc86-23c6be98a099.png normal
ec0492da-e6be-49cf-8b18-dc143180f1a2 ec0492da-e6be-49cf-8b18-dc143180f1a2.png normal
89dd8f63-8320-48f3-b142-d903f40d5c8c 89dd8f63-8320-48f3-b142-d903f40d5c8c.png normal
b76728e6-f44b-40bf-8688-e703d10d2039 b76728e6-f44b-40bf-8688-e703d10d2039.png normal
d9884def-b31a-4861-9eea-27f97bffeba2 d9884def-b31a-4861-9eea-27f97bffeba2.png normal
ffba6230-71cf-4287-a0d1-887f5d16e95d ffba6230-71cf-4287-a0d1-887f5d16e95d.png normal
f3b015ab-e337-4e7f-971d-eb7cc3dd4e92 f3b015ab-e337-4e7f-971d-eb7cc3dd4e92.png normal
bca4aa4d-0cc9-4cc0-b06d-5b675194bf62 bca4aa4d-0cc9-4cc0-b06d-5b675194bf62.png normal
9e2ddac8-9a4c-448b-98c8-a840a548d0f7 9e2ddac8-9a4c-448b-98c8-a840a548d0f7.png normal
fc958b63-5da8-448d-8962-3c5167dc9410 fc958b63-5da8-448d-8962-3c5167dc9410.png normal
cb7d021b-b273-436a-bd7a-e68c11ed3f6b cb7d021b-b273-436a-bd7a-e68c11ed3f6b.png normal
ff332704-48e0-445b-9188-b2a696d1f0d7 ff332704-48e0-445b-9188-b2a696d1f0d7.png normal
3e1b619a-cdd9-495a-bcbf-a9d62b418991 3e1b619a-cdd9-495a-bcbf-a9d62b418991.png normal
0977f16c-c343-42c9-95ed-d7ca996feb16 0977f16c-c343-42c9-95ed-d7ca996feb16.png normal
f8a11cd6-e541-4765-a41b-3d70b6f3481e f8a11cd6-e541-4765-a41b-3d70b6f3481e.png normal
960131aa-4ce4-4b26-aa12-5f73d8d81453 960131aa-4ce4-4b26-aa12-5f73d8d81453.png normal
3a5327d8-8830-4ae2-bd6b-293f5aa42d4b 3a5327d8-8830-4ae2-bd6b-293f5aa42d4b.png normal
a0b9597d-93f4-4a7c-a412-81cb78bccb66 a0b9597d-93f4-4a7c-a412-81cb78bccb66.png normal
cdac0980-033c-4685-b7e4-0a12c86a00a9 cdac0980-033c-4685-b7e4-0a12c86a00a9.png normal
7ca5c75a-1ec6-49a7-a3b0-93b6122a3170 7ca5c75a-1ec6-49a7-a3b0-93b6122a3170.png normal
d1e0d69c-a4df-485a-983c-535494221d1a d1e0d69c-a4df-485a-983c-535494221d1a.png normal
6b969591-8a07-49ed-9f65-fa19a453df59 6b969591-8a07-49ed-9f65-fa19a453df59.png normal
bd8facb9-dce0-4048-8249-e6078b28e1b7 bd8facb9-dce0-4048-8249-e6078b28e1b7.png pneumonia
4dbc44ca-694a-4814-9a24-bc60c8d8d611 4dbc44ca-694a-4814-9a24-bc60c8d8d611.png pneumonia
3f504abe-2133-4e09-98af-743cdea486f9 3f504abe-2133-4e09-98af-743cdea486f9.png pneumonia
af169d21-1c39-445e-82d8-5035182a3a8c af169d21-1c39-445e-82d8-5035182a3a8c.png pneumonia
fcd159f4-21d3-4169-a94b-95a2b5ccddcb fcd159f4-21d3-4169-a94b-95a2b5ccddcb.png pneumonia
b6db3041-1554-43ef-baca-58733b6717d6 b6db3041-1554-43ef-baca-58733b6717d6.png pneumonia
a0a8370a-dc3f-4f70-a440-e3fa9827928a a0a8370a-dc3f-4f70-a440-e3fa9827928a.png pneumonia
1dad3414-88c9-4c56-af5d-3a1488af452c 1dad3414-88c9-4c56-af5d-3a1488af452c.png pneumonia
f760c946-a103-4991-a6e5-ff60c24cd99f f760c946-a103-4991-a6e5-ff60c24cd99f.png pneumonia
b021293c-4dd0-450c-b1a4-2d72cedab0a2 b021293c-4dd0-450c-b1a4-2d72cedab0a2.png pneumonia
349f10b4-dc3e-4f3f-b2e4-a5b81448ce87 349f10b4-dc3e-4f3f-b2e4-a5b81448ce87.png pneumonia
05d3817a-5535-4e77-8dda-d4412e496c81 05d3817a-5535-4e77-8dda-d4412e496c81.png pneumonia
c21157da-1f74-4966-ba4e-c144d8f5da2d c21157da-1f74-4966-ba4e-c144d8f5da2d.png pneumonia
5acc56a4-1b6e-4394-9364-9772047d583f 5acc56a4-1b6e-4394-9364-9772047d583f.png pneumonia
f0ba0019-718f-4677-a723-05c27dba2f3e f0ba0019-718f-4677-a723-05c27dba2f3e.png pneumonia
cc3177c8-6570-497c-aef3-6fbddef692f6 cc3177c8-6570-497c-aef3-6fbddef692f6.png pneumonia
0e03c2d7-9cea-4dc7-8e91-794a8b3ff58d 0e03c2d7-9cea-4dc7-8e91-794a8b3ff58d.png pneumonia
070c921f-171c-420c-915b-e49e3f600c38 070c921f-171c-420c-915b-e49e3f600c38.png pneumonia
caa545b4-4eea-4e3a-90b1-c4c0789a1109 caa545b4-4eea-4e3a-90b1-c4c0789a1109.png pneumonia
7817b551-d220-479b-815f-395f83e1dba1 7817b551-d220-479b-815f-395f83e1dba1.png pneumonia
f743c21e-5876-460b-bbd6-2e2dcca41baa f743c21e-5876-460b-bbd6-2e2dcca41baa.png pneumonia
e1d5a233-39ca-41dc-a289-b07c3e78cdb1 e1d5a233-39ca-41dc-a289-b07c3e78cdb1.png pneumonia
40a2f7fd-342e-494b-a7e0-5857b73ec582 40a2f7fd-342e-494b-a7e0-5857b73ec582.png pneumonia
bcdd92c8-2cde-4899-a6fc-46b875aaab62 bcdd92c8-2cde-4899-a6fc-46b875aaab62.png pneumonia
ac648f87-a79f-4ce0-9439-23a8dd886b71 ac648f87-a79f-4ce0-9439-23a8dd886b71.png pneumonia
93b49de9-9267-43c2-a507-6885e4caeaba 93b49de9-9267-43c2-a507-6885e4caeaba.png pneumonia
af2ff93b-2f33-4c91-bde1-1490fc435b50 af2ff93b-2f33-4c91-bde1-1490fc435b50.png pneumonia
31692137-f770-4cfe-a02e-fd207ce813ac 31692137-f770-4cfe-a02e-fd207ce813ac.png pneumonia
f7379744-be39-44b2-8816-a743857bd6a6 f7379744-be39-44b2-8816-a743857bd6a6.png pneumonia
3186d210-966f-4733-ba72-98729be9551a 3186d210-966f-4733-ba72-98729be9551a.png pneumonia
b51c3c24-f9aa-4039-9fc1-527a5567dff6 b51c3c24-f9aa-4039-9fc1-527a5567dff6.png pneumonia
e9e58e10-2795-4dec-a738-c9792ea8f685 e9e58e10-2795-4dec-a738-c9792ea8f685.png pneumonia
cd9d2d22-4395-4e4d-8837-cfb33c2bdaab cd9d2d22-4395-4e4d-8837-cfb33c2bdaab.png pneumonia
b42eaeb8-b6d3-41d7-836c-56fd0922abf6 b42eaeb8-b6d3-41d7-836c-56fd0922abf6.png pneumonia
ae06b30f-ae30-40d3-b237-c934ce499774 ae06b30f-ae30-40d3-b237-c934ce499774.png pneumonia
f59ae80d-d98e-465f-963a-1064764211f8 f59ae80d-d98e-465f-963a-1064764211f8.png pneumonia
03a9498c-549d-4e7d-800b-e74797f7f625 03a9498c-549d-4e7d-800b-e74797f7f625.png pneumonia
080f2b35-fcd5-473e-864b-a7dea3054cc7 080f2b35-fcd5-473e-864b-a7dea3054cc7.png pneumonia
b479635e-4c58-4d27-879b-fb0e87b2a1aa b479635e-4c58-4d27-879b-fb0e87b2a1aa.png pneumonia
86853bbd-5af2-4551-8273-f2978dffdd76 86853bbd-5af2-4551-8273-f2978dffdd76.png pneumonia
acb5c720-f741-415c-993c-65855be08ffa acb5c720-f741-415c-993c-65855be08ffa.png pneumonia
1414c7d6-dff3-453c-8322-b25bb5899d78 1414c7d6-dff3-453c-8322-b25bb5899d78.png pneumonia
c3a6ca22-c09b-4be0-a59d-e52718fbb645 c3a6ca22-c09b-4be0-a59d-e52718fbb645.png pneumonia
bfd795ae-7656-40fc-b44e-566515e52ed2 bfd795ae-7656-40fc-b44e-566515e52ed2.png pneumonia
098906c5-cf22-43d3-9f0d-90e88e602090 098906c5-cf22-43d3-9f0d-90e88e602090.png pneumonia
b5714c0f-6d0f-4c56-833f-8b83f19e982a b5714c0f-6d0f-4c56-833f-8b83f19e982a.png pneumonia
875b34e4-b58d-479f-954a-5b015071f448 875b34e4-b58d-479f-954a-5b015071f448.png pneumonia
91e187a5-771d-4a83-9601-e22ed326bc8e 91e187a5-771d-4a83-9601-e22ed326bc8e.png pneumonia
3abb7176-035d-46cc-844e-820870e8154b 3abb7176-035d-46cc-844e-820870e8154b.png pneumonia
3e4ee273-d5ca-4cf8-a75a-05772e0e12fe 3e4ee273-d5ca-4cf8-a75a-05772e0e12fe.png pneumonia
bd9af100-1805-4e0a-8875-4a4b7195f0d8 bd9af100-1805-4e0a-8875-4a4b7195f0d8.png pneumonia
6804008c-94eb-4870-ba6e-b06514073e71 6804008c-94eb-4870-ba6e-b06514073e71.png pneumonia
0d9b1283-fc24-4fd3-a520-bc5d563e13e1 0d9b1283-fc24-4fd3-a520-bc5d563e13e1.png pneumonia
0a8d486f-1aa6-4fcf-b7be-4bf04fc8628b 0a8d486f-1aa6-4fcf-b7be-4bf04fc8628b.png pneumonia
37f17069-62ce-42ff-9fa4-d6a1056bd075 37f17069-62ce-42ff-9fa4-d6a1056bd075.png pneumonia
3db7e979-5f97-4985-bf0c-cdea7951e246 3db7e979-5f97-4985-bf0c-cdea7951e246.png pneumonia
e2e89418-6c0e-4f50-a2d9-6cd5e58feef0 e2e89418-6c0e-4f50-a2d9-6cd5e58feef0.png pneumonia
393b8e45-6d97-4013-8100-27ebf07a1dad 393b8e45-6d97-4013-8100-27ebf07a1dad.png pneumonia
2348e8ba-483f-476d-b29d-5ba8398d7abc 2348e8ba-483f-476d-b29d-5ba8398d7abc.png pneumonia
aef87dc2-a097-4683-9fb1-d1af6838a16a aef87dc2-a097-4683-9fb1-d1af6838a16a.png pneumonia
afe1b6e2-203e-4ee5-856a-2f205d8bca2a afe1b6e2-203e-4ee5-856a-2f205d8bca2a.png pneumonia
3d070009-c877-4ed4-ac80-53781cb30fef 3d070009-c877-4ed4-ac80-53781cb30fef.png pneumonia
34fbff70-fa6e-4709-ab07-17f739fce394 34fbff70-fa6e-4709-ab07-17f739fce394.png pneumonia
2c68016e-5a63-4430-a834-efe5d43edd0e 2c68016e-5a63-4430-a834-efe5d43edd0e.png pneumonia
8ae822ae-a656-47ba-ac5b-848ce2256575 8ae822ae-a656-47ba-ac5b-848ce2256575.png pneumonia
f661fe70-2fc1-4564-9f53-45504c0b0688 f661fe70-2fc1-4564-9f53-45504c0b0688.png pneumonia
78c33a1a-8f22-476c-ae97-8190192102df 78c33a1a-8f22-476c-ae97-8190192102df.png pneumonia
652b519d-5eb4-4abc-93f7-15ae661a431f 652b519d-5eb4-4abc-93f7-15ae661a431f.png pneumonia
2397b2f6-3dfa-476c-89ea-e9992c5bd9a9 2397b2f6-3dfa-476c-89ea-e9992c5bd9a9.png pneumonia
ac10f43e-03b8-43d2-bcae-6fe000542397 ac10f43e-03b8-43d2-bcae-6fe000542397.png pneumonia
3c8cc0d1-be7f-493d-9570-542d851f623b 3c8cc0d1-be7f-493d-9570-542d851f623b.png pneumonia
6565a9e6-3f01-4de8-a18d-ade3121c5d7c 6565a9e6-3f01-4de8-a18d-ade3121c5d7c.png pneumonia
ed0c5d1e-934a-4e31-9221-3a6a69ec9c1b ed0c5d1e-934a-4e31-9221-3a6a69ec9c1b.png pneumonia
4bc8ce99-2420-48c2-a768-d067da67ced2 4bc8ce99-2420-48c2-a768-d067da67ced2.png pneumonia
6df82c7a-a91e-487c-ae3a-9022b17d7c7a 6df82c7a-a91e-487c-ae3a-9022b17d7c7a.png pneumonia
a6c364d2-b2d6-4b0b-a439-40b992ff65c7 a6c364d2-b2d6-4b0b-a439-40b992ff65c7.png pneumonia
32a5977f-f8ab-41c9-9b51-5387248e4675 32a5977f-f8ab-41c9-9b51-5387248e4675.png pneumonia
c3751c94-ea6f-4a7c-b3bf-87a54012fa80 c3751c94-ea6f-4a7c-b3bf-87a54012fa80.png pneumonia
1c0a780d-1cac-4eee-b46d-470ecebc9ae0 1c0a780d-1cac-4eee-b46d-470ecebc9ae0.png pneumonia
b852bc3c-0de5-4448-aff8-f96b2cc13d51 b852bc3c-0de5-4448-aff8-f96b2cc13d51.png pneumonia
a2616330-1f29-4019-928f-e2d62b3b737b a2616330-1f29-4019-928f-e2d62b3b737b.png pneumonia
a6236ddd-6367-4569-b5f1-07d2df9390ad a6236ddd-6367-4569-b5f1-07d2df9390ad.png pneumonia
b8d6b40d-2a3d-475f-88d3-03560f645223 b8d6b40d-2a3d-475f-88d3-03560f645223.png pneumonia
49b2fb17-b12c-4e5a-8c4a-02449027c42b 49b2fb17-b12c-4e5a-8c4a-02449027c42b.png pneumonia
3766b0a6-1769-4d82-b081-fa53531de34e 3766b0a6-1769-4d82-b081-fa53531de34e.png pneumonia
f12d7b12-0398-4533-8f55-8772cc434945 f12d7b12-0398-4533-8f55-8772cc434945.png pneumonia
0b7a4fb2-adab-484b-a0f7-23f5111bc745 0b7a4fb2-adab-484b-a0f7-23f5111bc745.png pneumonia
1565fd6c-9432-454a-87e4-937fd5ad5b60 1565fd6c-9432-454a-87e4-937fd5ad5b60.png pneumonia
02002619-3dea-4038-8d4d-458db30ed8de 02002619-3dea-4038-8d4d-458db30ed8de.png pneumonia
becefa4b-f719-48c6-a903-85e391e026a4 becefa4b-f719-48c6-a903-85e391e026a4.png pneumonia
3f2b878e-9e3b-410b-a739-b43d81b98692 3f2b878e-9e3b-410b-a739-b43d81b98692.png pneumonia
adce8349-6836-4328-ab63-f356d0bbe298 adce8349-6836-4328-ab63-f356d0bbe298.png pneumonia
854fee36-d54c-4cde-904d-ab77f5e2e091 854fee36-d54c-4cde-904d-ab77f5e2e091.png pneumonia
baf8fe18-a7ca-4e9c-b3dc-5c80d474545b baf8fe18-a7ca-4e9c-b3dc-5c80d474545b.png pneumonia
a77b32f6-1999-4cc6-8a0d-1ef7e53850f0 a77b32f6-1999-4cc6-8a0d-1ef7e53850f0.png pneumonia
41bf2042-53a2-44a8-9a29-55e643af5ac0 41bf2042-53a2-44a8-9a29-55e643af5ac0.png pneumonia
COVID-00025 COVID-00025.jpg COVID-19 fig1
COVID-00026 COVID-00026.jpg COVID-19 fig1
COVID-00027 COVID-00027.jpg COVID-19 fig1
COVID-00029 COVID-00029.jpg COVID-19 fig1
COVID-00030 COVID-00030.jpg COVID-19 fig1
COVID-00032 COVID-00032.jpg COVID-19 fig1
COVID-00033 COVID-00033.jpg COVID-19 fig1
COVID-00035 COVID-00035.jpg COVID-19 fig1
COVID-00036 COVID-00036.jpg COVID-19 fig1
COVID-00037 COVID-00037.jpg COVID-19 fig1
COVID-00038 COVID-00038.jpg COVID-19 fig1
ANON45 CR.1.2.840.113564.1722810170.20200320071047906500.1003000225002.png COVID-19 actmed
ANON234 CR.1.2.840.113564.1722810170.20200320072856343530.1003000225002.png COVID-19 actmed
ANON24 CR.1.2.840.113564.1722810170.20200320103403375580.1003000225002.png COVID-19 actmed
ANON220 CR.1.2.840.113564.1722810170.20200320183426328780.1003000225002.png COVID-19 actmed
ANON237 CR.1.2.840.113564.1722810170.20200321001546031810.1003000225002.png COVID-19 actmed
ANON218 CR.1.2.840.113564.1722810170.20200321002029359840.1003000225002.png COVID-19 actmed
ANON100 CR.1.2.840.113564.1722810170.20200321123520296900.1003000225002.png COVID-19 actmed
ANON174 CR.1.2.840.113564.1722810170.20200321172326140930.1003000225002.png COVID-19 actmed
ANON218 CR.1.2.840.113564.1722810170.202003211812003285.1003000225002.png COVID-19 actmed
ANON237 CR.1.2.840.113564.1722810170.20200322194859750610.1003000225002.png COVID-19 actmed
ANON191 CR.1.2.840.113564.1722810170.20200325010134750210.1003000225002.png COVID-19 actmed
ANON191 CR.1.2.840.113564.1722810170.20200325012424140230.1003000225002.png COVID-19 actmed
ANON126 CR.1.2.840.113564.1722810170.20200325212815187370.1003000225002.png COVID-19 actmed
ANON73 CR.1.2.840.113564.1722810170.20200329163846250860.1003000225002.png COVID-19 actmed
ANON73 CR.1.2.840.113564.1722810170.20200329171322703880.1003000225002.png COVID-19 actmed
ANON106 CR.1.2.840.113564.1722810170.20200330111806125940.1003000225002.png COVID-19 actmed
ANON44 CR.1.2.840.113564.1722810170.20200402113955515630.1003000225002.png COVID-19 actmed
ANON195 CR.1.2.840.113564.1722810170.20200403175115515840.1003000225002.png COVID-19 actmed
ANON29 CR.1.2.840.113564.1722810170.20200403211237078970.1003000225002.png COVID-19 actmed
ANON218 CR.1.2.840.113564.1722810170.202004040240155151.1003000225002.png COVID-19 actmed
ANON158 CR.1.2.840.113564.1722810170.20200407121512859570.1003000225002.png COVID-19 actmed
ANON201 CR.1.2.840.113564.1722810170.20200416020138312830.1003000225002.png COVID-19 actmed
ANON112 DX.1.2.840.113564.1722810162.20200322024635362290.1203801020003.png COVID-19 actmed
ANON19 DX.1.2.840.113564.1722810162.20200325130756972300.1203801020003.png COVID-19 actmed
ANON67 DX.1.2.840.113564.1722810162.20200326160333805210.1203801020003.png COVID-19 actmed
ANON30 DX.1.2.840.113564.1722810162.20200326172257446270.1203801020003.png COVID-19 actmed
ANON189 DX.1.2.840.113564.1722810162.20200328170109600900.1203801020003.png COVID-19 actmed
ANON110 DX.1.2.840.113564.1722810162.202003281918584533.1203801020003.png COVID-19 actmed
ANON153 DX.1.2.840.113564.1722810162.202004071718231126.1203801020003.png COVID-19 actmed
ANON240 DX.1.2.840.113564.1722810162.202004081114029075.1203801020003.png COVID-19 actmed
ANON53 DX.1.2.840.113564.1722810162.20200409093935803690.1203801020003.png COVID-19 actmed
ANON135 DX.1.2.840.113564.1722810162.20200409104802496810.1203801020003.png COVID-19 actmed
ANON46 DX.1.2.840.113564.1722810162.20200415105839964650.1203801020003.png COVID-19 actmed
COVID-19(70) COVID-19(70).png COVID-19 sirm
COVID-19(72) COVID-19(72).png COVID-19 sirm
COVID-19(77) COVID-19(77).png COVID-19 sirm
COVID-19(81) COVID-19(81).png COVID-19 sirm
COVID-19(87) COVID-19(87).png COVID-19 sirm
COVID-19(94) COVID-19(94).png COVID-19 sirm
COVID-19(95) COVID-19(95).png COVID-19 sirm
COVID-19(106) COVID-19(106).png COVID-19 sirm
COVID-19(107) COVID-19(107).png COVID-19 sirm
COVID-19(116) COVID-19(116).png COVID-19 sirm
COVID-19(119) COVID-19(119).png COVID-19 sirm
COVID-19(129) COVID-19(129).png COVID-19 sirm
COVID-19(131) COVID-19(131).png COVID-19 sirm
COVID-19(213) COVID-19(213).png COVID-19 sirm
COVID-19(214) COVID-19(214).png COVID-19 sirm
COVID-19(215) COVID-19(215).png COVID-19 sirm
COVID-19(216) COVID-19(216).png COVID-19 sirm
